Beatles,http://relay.181.fm:8062
Classic_Hits,http://relay.181.fm:8132
Good_Time_Oldies,http://relay.181.fm:8046
Mellow_Gold,http://relay.181.fm:8060
Soul,http://relay.181.fm:8058
Super_70s,http://relay.181.fm:8066
